<?xml version="1.0" encoding="UTF-8" standalone="no"?>
<!-- Created with Inkscape (http://www.inkscape.org/) -->

<svg
   xmlns:dc="http://purl.org/dc/elements/1.1/"
   xmlns:cc="http://creativecommons.org/ns#"
   xmlns:rdf="http://www.w3.org/1999/02/22-rdf-syntax-ns#"
   xmlns:svg="http://www.w3.org/2000/svg"
   xmlns="http://www.w3.org/2000/svg"
   xmlns:sodipodi="http://sodipodi.sourceforge.net/DTD/sodipodi-0.dtd"
   xmlns:inkscape="http://www.inkscape.org/namespaces/inkscape"
   width="100"
   height="100"
   viewBox="0 0 99.999997 99.999997"
   id="svg2"
   version="1.1"
   inkscape:version="0.91 r13725"
   sodipodi:docname="wait-base.svg">
  <defs
     id="defs4" />
  <sodipodi:namedview
     id="base"
     pagecolor="#ffffff"
     bordercolor="#666666"
     borderopacity="1.0"
     inkscape:pageopacity="0.0"
     inkscape:pageshadow="2"
     inkscape:zoom="4"
     inkscape:cx="40.279625"
     inkscape:cy="57.255764"
     inkscape:document-units="px"
     inkscape:current-layer="layer1"
     showgrid="false"
     units="px"
     inkscape:snap-text-baseline="true"
     inkscape:window-width="1298"
     inkscape:window-height="739"
     inkscape:window-x="0"
     inkscape:window-y="0"
     inkscape:window-maximized="1" />
  <metadata
     id="metadata7">
    <rdf:RDF>
      <cc:Work
         rdf:about="">
        <dc:format>image/svg+xml</dc:format>
        <dc:type
           rdf:resource="http://purl.org/dc/dcmitype/StillImage" />
        <dc:title />
      </cc:Work>
    </rdf:RDF>
  </metadata>
  <g
     inkscape:label="Layer 1"
     inkscape:groupmode="layer"
     id="layer1"
     transform="translate(0,-952.36223)">
    <rect
       style="opacity:1"
       id="rect3336"
       width="5"
       height="20"
       x="30"
       y="1022.3622" />
    <rect
       style="opacity:1"
       id="rect3338"
       width="25"
       height="5"
       x="10"
       y="982.36212" />
    <rect
       style="opacity:1"
       id="rect3338-3"
       width="25"
       height="5"
       x="10"
       y="1017.3622" />
    <rect
       style="opacity:1"
       id="rect3338-6"
       width="53.333332"
       height="5"
       x="35"
       y="982.36224" />
    <rect
       style="opacity:1"
       id="rect3338-3-7"
       width="53.333332"
       height="5"
       x="35"
       y="1017.3622" />
    <text
       xml:space="preserve"
       style="font-style:normal;font-weight:normal;font-size:12.5px;line-height:125%;font-family:sans-serif;letter-spacing:0px;word-spacing:0px;fill:#000000;fill-opacity:1;stroke:none;stroke-width:1px;stroke-linecap:butt;stroke-linejoin:miter;stroke-opacity:1"
       x="37.176025"
       y="1000.3622"
       id="text3373"
       sodipodi:linespacing="125%"><tspan
         sodipodi:role="line"
         id="tspan3375"
         x="37.176025"
         y="1000.3622">0</tspan></text>
    <text
       xml:space="preserve"
       style="font-style:normal;font-weight:normal;font-size:12.5px;line-height:125%;font-family:sans-serif;letter-spacing:0px;word-spacing:0px;fill:#000000;fill-opacity:1;stroke:none;stroke-width:1px;stroke-linecap:butt;stroke-linejoin:miter;stroke-opacity:1"
       x="37.176025"
       y="1014.4124"
       id="text3373-5"
       sodipodi:linespacing="125%"><tspan
         sodipodi:role="line"
         id="tspan3375-3"
         x="37.176025"
         y="1014.4124">1</tspan><tspan
         sodipodi:role="line"
         x="37.176025"
         y="1030.0374"
         id="tspan3395" /></text>
    <text
       xml:space="preserve"
       style="font-style:normal;font-weight:normal;font-size:12.5px;line-height:125%;font-family:sans-serif;letter-spacing:0px;word-spacing:0px;fill:#000000;fill-opacity:1;stroke:none;stroke-width:1px;stroke-linecap:butt;stroke-linejoin:miter;stroke-opacity:1"
       x="36.776611"
       y="967.66241"
       id="text3373-56"
       sodipodi:linespacing="125%"><tspan
         sodipodi:role="line"
         id="tspan3375-2"
         x="36.776611"
         y="967.66241">0</tspan></text>
    <text
       xml:space="preserve"
       style="font-style:normal;font-weight:normal;font-size:12.5px;line-height:125%;font-family:sans-serif;letter-spacing:0px;word-spacing:0px;fill:#000000;fill-opacity:1;stroke:none;stroke-width:1px;stroke-linecap:butt;stroke-linejoin:miter;stroke-opacity:1"
       x="6.7766113"
       y="977.66241"
       id="text3373-9"
       sodipodi:linespacing="125%"><tspan
         sodipodi:role="line"
         id="tspan3375-1"
         x="6.7766113"
         y="977.66241">0</tspan></text>
    <text
       xml:space="preserve"
       style="font-style:normal;font-weight:normal;font-size:12.5px;line-height:125%;font-family:sans-serif;letter-spacing:0px;word-spacing:0px;fill:#000000;fill-opacity:1;stroke:none;stroke-width:1px;stroke-linecap:butt;stroke-linejoin:miter;stroke-opacity:1"
       x="7.2766113"
       y="1013.6624"
       id="text3373-2"
       sodipodi:linespacing="125%"><tspan
         sodipodi:role="line"
         id="tspan3375-7"
         x="7.2766113"
         y="1013.6624">0</tspan></text>
    <text
       xml:space="preserve"
       style="font-style:normal;font-weight:normal;font-size:12.5px;line-height:125%;font-family:sans-serif;letter-spacing:0px;word-spacing:0px;fill:#000000;fill-opacity:1;stroke:none;stroke-width:1px;stroke-linecap:butt;stroke-linejoin:miter;stroke-opacity:1"
       x="37.276611"
       y="1045.6624"
       id="text3373-0"
       sodipodi:linespacing="125%"><tspan
         sodipodi:role="line"
         id="tspan3375-9"
         x="37.276611"
         y="1045.6624">0</tspan></text>
    <rect
       style="opacity:1"
       id="rect3336-3"
       width="5"
       height="30"
       x="30"
       y="987.36224" />
    <rect
       style="opacity:1"
       id="rect3336-3-6"
       width="5"
       height="20"
       x="30"
       y="962.36224" />
    <text
       xml:space="preserve"
       style="font-style:normal;font-weight:normal;font-size:12.5px;line-height:125%;font-family:sans-serif;letter-spacing:0px;word-spacing:0px;fill:#000000;fill-opacity:1;stroke:none;stroke-width:1px;stroke-linecap:butt;stroke-linejoin:miter;stroke-opacity:1"
       x="84.026611"
       y="1033.4124"
       id="text3373-0-9"
       sodipodi:linespacing="125%"><tspan
         sodipodi:role="line"
         id="tspan3375-9-2"
         x="84.026611"
         y="1033.4124">0</tspan></text>
    <text
       xml:space="preserve"
       style="font-style:normal;font-weight:normal;font-size:12.5px;line-height:125%;font-family:sans-serif;letter-spacing:0px;word-spacing:0px;fill:#000000;fill-opacity:1;stroke:none;stroke-width:1px;stroke-linecap:butt;stroke-linejoin:miter;stroke-opacity:1"
       x="83.526611"
       y="979.16235"
       id="text3373-0-9-0"
       sodipodi:linespacing="125%"><tspan
         sodipodi:role="line"
         id="tspan3375-9-2-2"
         x="83.526611"
         y="979.16235">0</tspan></text>
  </g>
</svg>
